…
If we want to perform an analysis across subsets of the recipient
population – for example, calculate the mean of “electricity” by
household “income” – we can use the `by` and `static` arguments.

``` r
analyze(aircon ~ 1,
        implicates = sim10, 
        donor.N = nrow(donor),
        static = recipient,
        by = "income")
```

    Assuming uniform 'sample_weights`

    # A tibble: 32 × 11
       income  response level estimate std_error lower_ci upper_ci statistic  pvalue
       <ord>   <chr>    <fct>    <dbl>     <dbl>    <dbl>    <dbl>     <dbl>   <dbl>
     1 Less t… aircon   Cent…   0.437    0.0255    0.386    0.487      17.1  0      
     2 Less t… aircon   Indi…   0.339    0.0256    0.288    0.391      13.2  0      
     3 Less t… aircon   Both…   0.0217   0.00900   0        0.0459      2.41 0.0690 
     4 Less t… aircon   No a…   0.202    0.0210    0.160    0.244       9.62 0      
     5 $20,00… aircon   Cent…   0.611    0.0234    0.564    0.658      26.1  0      
     6 $20,00… aircon   Indi…   0.209    0.0206    0.168    0.251      10.2  0      
     7 $20,00… aircon   Both…   0.0346   0.00914   0.0144   0.0548      3.78 0.00325
     8 $20,00… aircon   No a…   0.145    0.0158    0.113    0.176       9.14 0      
     9 $40,00… aircon   Cent…   0.639    0.0250    0.590    0.689      25.6  0      
    10 $40,00… aircon   Indi…   0.195    0.0212    0.152    0.238       9.18 0      
    # … with 22 more rows, and 2 more variables: degf <int>, nobs <int>
…
